…
    intersect, setdiff, setequal, union

> library(tibble)
> 
> # Convert rownames to column
> mtcars <- mtcars %>%
+   rownames_to_column(var = "automobile")
> 
> # Fit lm() regression:
> mpg_model <- lm(mpg ~ cyl, data = mtcars)
> 
> # Get information on all points in regression:
> get_regression_points(mpg_model, ID = "automobile")
# A tibble: 32 x 5
   automobile          mpg   cyl mpg_hat residual
   <chr>             <dbl> <dbl>   <dbl>    <dbl>
 1 Mazda RX4          21       6    20.6    0.37 
 2 Mazda RX4 Wag      21       6    20.6    0.37 
 3 Datsun 710         22.8     4    26.4   -3.58 
 4 Hornet 4 Drive     21.4     6    20.6    0.77 
 5 Hornet Sportabout  18.7     8    14.9    3.82 
 6 Valiant            18.1     6    20.6   -2.53 
 7 Duster 360         14.3     8    14.9   -0.578
 8 Merc 240D          24.4     4    26.4   -1.98 
 9 Merc 230           22.8     4    26.4   -3.58 
10 Merc 280           19.2     6    20.6   -1.43 
# … with 22 more rows
…
> 
> # Fit regression model:
> mpg_model <- lm(mpg ~ hp, data = mtcars)
> 
> # Regression tables:
> get_regression_table(mpg_model)
# A tibble: 2 x 7
  term      estimate std_error statistic p_value lower_ci upper_ci
  <chr>        <dbl>     <dbl>     <dbl>   <dbl>    <dbl>    <dbl>
1 intercept   30.1        1.63     18.4        0   26.8     33.4  
2 hp          -0.068      0.01     -6.74       0   -0.089   -0.048
> 
> # Information on each point in a regression:
> get_regression_points(mpg_model)
# A tibble: 32 x 5
      ID   mpg    hp mpg_hat residual
   <int> <dbl> <dbl>   <dbl>    <dbl>
 1     1  21     110    22.6   -1.59 
 2     2  21     110    22.6   -1.59 
 3     3  22.8    93    23.8   -0.954
 4     4  21.4   110    22.6   -1.19 
 5     5  18.7   175    18.2    0.541
 6     6  18.1   105    22.9   -4.84 
 7     7  14.3   245    13.4    0.917
 8     8  24.4    62    25.9   -1.47 
 9     9  22.8    95    23.6   -0.817
10    10  19.2   123    21.7   -2.51 
# … with 22 more rows
…
The following objects are masked from ‘package:stats’:

    filter, lag

The following objects are masked from ‘package:base’:

    intersect, setdiff, setequal, union

> library(ggplot2)
> 
> # Take 50 different resamples/bootstraps from the original sample
> many_bootstraps <- orig_pennies_sample %>%
+   rep_sample_n(size = 40, replace = TRUE, reps = 50)
> many_bootstraps
# A tibble: 2,000 x 3
# Groups:   replicate [50]
   replicate  year age_in_2011
       <int> <dbl>       <dbl>
 1         1  1992          19
 2         1  2001          10
 3         1  2005           6
 4         1  1961          50
 5         1  1983          28
 6         1  1964          47
 7         1  1986          25
 8         1  1972          39
 9         1  1987          24
10         1  1987          24
# … with 1,990 more rows
…
The following objects are masked from ‘package:stats’:

    filter, lag

The following objects are masked from ‘package:base’:

    intersect, setdiff, setequal, union

> library(ggplot2)
> 
> # Take 25 different samples of size n = 50 pennies from population
> many_samples <- pennies %>%
+   rep_sample_n(size = 50, reps = 25)
> many_samples
# A tibble: 1,250 x 3
# Groups:   replicate [25]
   replicate  year age_in_2011
       <int> <int>       <int>
 1         1  2006           5
 2         1  1974          37
 3         1  1981          30
 4         1  1995          16
 5         1  2001          10
 6         1  2005           6
 7         1  2008           3
 8         1  2006           5
 9         1  1990          21
10         1  2000          11
# … with 1,240 more rows
…
