Vehicle info from the EPA — epa2012 • openintro
…
car_trucka factor with levels 1 2 car

release_dateDate of vehicle release.

fuel_cella factor with levels  N Y

    Source

    Fuelecomy.gov, Shared MPG Estimates: Toyota Prius 2012.

    Examples

epa2012
#> # A tibble: 1,129 x 28
#>    model_yr mfr_name division carline mfr_code model_type_index engine_displace…
#>       <int> <fct>    <fct>    <fct>   <fct>               <int>            <dbl>
#>  1     2012 aston m… Aston M… V12 Va… ASX                     8              5.9
#>  2     2012 aston m… Aston M… V8 Van… ASX                     2              4.7
#>  3     2012 aston m… Aston M… V8 Van… ASX                    11              4.7
#>  4     2012 aston m… Aston M… V8 Van… ASX                     1              4.7
#>  5     2012 aston m… Aston M… V8 Van… ASX                     3              4.7
#>  6     2012 Audi     Audi     R8      ADX                    73              4.2
#>  7     2012 Audi     Audi     R8      ADX                    75              4.2
#>  8     2012 Audi     Audi     R8      ADX                    41              5.2
#>  9     2012 Audi     Audi     R8      ADX                    43              5.2
#> 10     2012 Audi     Audi     R8 Spy… ADX                    66              4.2
#> # … with 1,119 more rows, and 21 more variables: no_cylinders <int>,
#> #   transmission_speed <fct>, city_mpg <int>, hwy_mpg <int>, comb_mpg <int>,
#> #   guzzler <fct>, air_aspir_method <fct>, air_aspir_method_desc <fct>,
#> #   transmission <fct>, transmission_desc <fct>, no_gears <int>,
#> #   trans_lockup <fct>, trans_creeper_gear <fct>, drive_sys <fct>,
#> #   drive_desc <fct>, fuel_usage <fct>, fuel_usage_desc <fct>, class <fct>,
#> #   car_truck <fct>, release_date <fct>, fuel_cell <fct>
…
