…
  a factor with levels `approve` `disapprove` `other`

## Source

www.people-press.org/2012/03/26/public-remains-split-on-health-care-bill-opposed-to-mandate/.
Sample sizes for each polling group are approximate.

## Examples

``` r


healthcare_law_survey
#> # A tibble: 1,503 × 2
#>    order                response
#>    <fct>                <fct>   
#>  1 cannot_afford_second approve 
#>  2 cannot_afford_second approve 
#>  3 cannot_afford_second approve 
#>  4 cannot_afford_second approve 
#>  5 cannot_afford_second approve 
#>  6 cannot_afford_second approve 
#>  7 cannot_afford_second approve 
#>  8 cannot_afford_second approve 
#>  9 cannot_afford_second approve 
#> 10 cannot_afford_second approve 
#> # ℹ 1,493 more rows
```
