…
``` r
housing
```

## Format

A data frame with 75 observations on the following variable.

## Examples

``` r


housing
#> # A tibble: 75 × 1
#>     cost
#>    <dbl>
#>  1  506.
#>  2  614.
#>  3  755.
#>  4  483.
#>  5  588.
#>  6  609.
#>  7  667.
#>  8  572.
#>  9  794.
#> 10  582.
#> # ℹ 65 more rows
```
