…
- political:

  a factor with levels `conservative` `liberal` `moderate`

## Source

SurveyUSA, News Poll \#18927, data collected Jan 27-29, 2012.

## Examples

``` r


immigration
#> # A tibble: 910 × 2
#>    response              political   
#>    <fct>                 <fct>       
#>  1 Apply for citizenship conservative
#>  2 Apply for citizenship conservative
#>  3 Apply for citizenship conservative
#>  4 Apply for citizenship conservative
#>  5 Apply for citizenship conservative
#>  6 Apply for citizenship conservative
#>  7 Apply for citizenship conservative
#>  8 Apply for citizenship conservative
#>  9 Apply for citizenship conservative
#> 10 Apply for citizenship conservative
#> # ℹ 900 more rows
```
