…
``` r
jury
```

## Format

A data frame with 275 observations on the following variable.

## Examples

``` r


jury
#> # A tibble: 275 × 1
#>    race 
#>    <fct>
#>  1 white
#>  2 white
#>  3 white
#>  4 white
#>  5 white
#>  6 white
#>  7 white
#>  8 white
#>  9 white
#> 10 white
#> # ℹ 265 more rows
```
