Loan data from Lending Club — loans_full_schema • openintro
…
paid_late_fees
Late fees paid by the applicant.

    Source

    This data comes from Lending Club
(https://www.lendingclub.com/info/statistics.action), which
provides a very large, open set of data on the people who received loans
through their platform.

    Examples

loans_full_schema
#> # A tibble: 10,000 × 55
#>    emp_title        emp_length state homeownership annual_income verified_income
#>    <chr>                 <dbl> <fct> <fct>                 <dbl> <fct>          
#>  1 "global config …          3 NJ    MORTGAGE              90000 Verified       
#>  2 "warehouse offi…         10 HI    RENT                  40000 Not Verified   
#>  3 "assembly"                3 WI    RENT                  40000 Source Verified
#>  4 "customer servi…          1 PA    RENT                  30000 Not Verified   
#>  5 "security super…         10 CA    RENT                  35000 Verified       
#>  6 ""                       NA KY    OWN                   34000 Not Verified   
#>  7 "hr "                    10 MI    MORTGAGE              35000 Source Verified
#>  8 "police"                 10 AZ    MORTGAGE             110000 Source Verified
#>  9 "parts"                  10 NV    MORTGAGE              65000 Source Verified
#> 10 "4th person"              3 IL    RENT                  30000 Not Verified   
#> # ℹ 9,990 more rows
#> # ℹ 49 more variables: debt_to_income <dbl>, annual_income_joint <dbl>,
#> #   verification_income_joint <fct>, debt_to_income_joint <dbl>,
#> #   delinq_2y <int>, months_since_last_delinq <int>,
#> #   earliest_credit_line <dbl>, inquiries_last_12m <int>,
#> #   total_credit_lines <int>, open_credit_lines <int>,
#> #   total_credit_limit <int>, total_credit_utilized <int>, …
…
