…
## Format

A data frame with 100 observations on the following variable.

## References

What We Eat In America - Food Commodity Intake Database. Available at
<https://fcid.foodrisk.org/>.

## Examples

``` r

male_heights
#> # A tibble: 100 × 1
#>    heights
#>      <int>
#>  1      71
#>  2      67
#>  3      69
#>  4      70
#>  5      68
#>  6      63
#>  7      68
#>  8      72
#>  9      70
#> 10      70
#> # ℹ 90 more rows
```
