…
  a factor with levels `no` `yes`

## Source

G. Allais et al. Ear acupuncture in the treatment of migraine attacks: a
randomized trial on the efficacy of appropriate versus inappropriate
acupoints. In: Neurological Sci. 32.1 (2011), pp. 173-175.

## Examples

``` r


migraine
#> # A tibble: 89 × 2
#>    group     pain_free
#>    <fct>     <fct>    
#>  1 treatment yes      
#>  2 treatment yes      
#>  3 treatment yes      
#>  4 treatment yes      
#>  5 treatment yes      
#>  6 treatment yes      
#>  7 treatment yes      
#>  8 treatment yes      
#>  9 treatment yes      
#> 10 treatment yes      
#> # ℹ 79 more rows
```
