…
# List the teams with their average number of wins and losses
mlb_teams |>
  group_by(team_name) |>
  summarize(mean_wins = mean(wins), mean_losses = mean(losses)) |>
  arrange((team_name))
#> # A tibble: 86 × 3
#>    team_name            mean_wins mean_losses
#>    <chr>                    <dbl>       <dbl>
#>  1 Anaheim Angels            83          79  
#>  2 Arizona Diamondbacks      77.7        79.8
#>  3 Atlanta Braves            81.2        76.3
#>  4 Baltimore Orioles         79.1        75.4
#>  5 Boston Americans          75.4        70.3
#>  6 Boston Beaneaters         72.6        61.0
#>  7 Boston Bees               71          81.2
#>  8 Boston Braves             68.3        83.5
#>  9 Boston Doves              54.8        97.2
#> 10 Boston Red Caps           42.7        32.3
#> # ℹ 76 more rows
```
