Medial temporal lobe (MTL) and other data for 26 participants — mtl • openintro
…
Thank you to Professor Silas Bergen of Winona State University for pointing
us to this data set!

    References

    A New York Times article references this study.
https://www.nytimes.com/2018/04/19/opinion/standing-up-at-your-desk-could-make-you-smarter.html

    Examples

# Examine the relationship between the METminwk and IPAQgrp variables.
a <- mtl[, c("met_minwk", "ipa_qgrp")]
a[order(a$met_minwk), ]
#> # A tibble: 35 x 2
#>    met_minwk ipa_qgrp
#>        <dbl> <chr>   
#>  1       99  Low     
#>  2      132  Low     
#>  3      360  Low     
#>  4      396  Low     
#>  5      495  Low     
#>  6      594  Low     
#>  7      644. Low     
#>  8      684  Low     
#>  9      693  Low     
#> 10      693  Low     
#> # … with 25 more rows
…
