…
Hadley Wickham (2014).
[nycflights13](https://CRAN.R-project.org/package=nycflights13): Data
about flights departing NYC in 2013. R package version 0.1.

## Examples

``` r

library(dplyr)

# Longest departure delays
nycflights |>
  select(flight, origin, dest, dep_delay, arr_delay) |>
  arrange(desc(dep_delay))
#> # A tibble: 32,735 × 5
#>    flight origin dest  dep_delay arr_delay
#>     <int> <chr>  <chr>     <dbl>     <dbl>
#>  1     51 JFK    HNL        1301      1272
#>  2   1223 EWR    SLC         849       847
#>  3   2019 LGA    STL         803       802
#>  4    503 JFK    SAN         790       769
#>  5   2042 EWR    ATL         502       490
#>  6   4949 LGA    GSO         473       444
#>  7   1373 JFK    MIA         436       399
#>  8    479 LGA    IAH         427       435
#>  9   2226 LGA    MDW         423       422
#> 10    745 LGA    DEN         422       405
#> # ℹ 32,725 more rows

# Longest arrival delays
nycflights |>
  select(flight, origin, dest, dep_delay, arr_delay) |>
  arrange(desc(arr_delay))
#> # A tibble: 32,735 × 5
#>    flight origin dest  dep_delay arr_delay
#>     <int> <chr>  <chr>     <dbl>     <dbl>
#>  1     51 JFK    HNL        1301      1272
#>  2   1223 EWR    SLC         849       847
#>  3   2019 LGA    STL         803       802
#>  4    503 JFK    SAN         790       769
#>  5   2042 EWR    ATL         502       490
#>  6   4949 LGA    GSO         473       444
#>  7    479 LGA    IAH         427       435
#>  8   1139 LGA    DFW         413       434
#>  9   2226 LGA    MDW         423       422
#> 10   3325 JFK    DFW         355       421
#> # ℹ 32,725 more rows
```
