1986 Challenger disaster and O-rings — orings • openintro
…
    Format

    A data frame with 23 observations on the following 2 variables.

damageNumber of damaged O-rings (out of 6).

    Source

    https://archive.ics.uci.edu/ml/datasets/Challenger+USA+Space+Shuttle+O-Ring

    Examples

orings
#> # A tibble: 23 x 2
#>     temp damage
#>    <int>  <int>
#>  1    53      5
#>  2    57      1
#>  3    58      1
#>  4    63      1
#>  5    66      0
#>  6    67      0
#>  7    67      0
#>  8    67      0
#>  9    68      0
#> 10    69      0
#> # … with 13 more rows
…
