Oscar winners, 1929 to 2018 — oscars • openintro
…
oscars |>
  count(birth_pl, sort = TRUE)
#> # A tibble: 51 × 2
#>    birth_pl          n
#>    <chr>         <int>
#>  1 England          29
#>  2 California       25
#>  3 New York         23
#>  4 Connecticut       5
#>  5 Illinois          5
#>  6 Pennsylvania      5
#>  7 Massachusetts     4
#>  8 Missouri          4
#>  9 New Jersey        4
#> 10 Ohio              4
#> # ℹ 41 more rows
…
