Air quality for Durham, NC — pm25_2011_durham • openintro
…
site_latitude
a numeric vector

site_longitude
a numeric vector

    Source

    US Environmental Protection Agency, AirData, 2011.
http://www3.epa.gov/airdata/ad_data_daily.html

    Examples

pm25_2011_durham
#> # A tibble: 449 × 20
#>    date    aqs_sit…¹   poc daily…² units daily…³ daily…⁴ perce…⁵ aqs_p…⁶ aqs_p…⁷
#>    <fct>   <fct>     <int>   <dbl> <fct>   <dbl>   <int>   <int>   <int> <fct>  
#>  1 1/3/11  37-063-0…     1     5.9 ug/m…      19       1     100   88101 PM2.5 …
#>  2 1/6/11  37-063-0…     1    10.4 ug/m…      34       1     100   88101 PM2.5 …
#>  3 1/9/11  37-063-0…     1     5.6 ug/m…      18       1     100   88101 PM2.5 …
#>  4 1/10/11 37-063-0…     1     6.2 ug/m…      20       1     100   88101 PM2.5 …
#>  5 1/18/11 37-063-0…     1     9.4 ug/m…      31       1     100   88101 PM2.5 …
#>  6 1/21/11 37-063-0…     1     5   ug/m…      16       1     100   88101 PM2.5 …
#>  7 1/24/11 37-063-0…     1    11.5 ug/m…      37       1     100   88101 PM2.5 …
#>  8 1/27/11 37-063-0…     1     9.8 ug/m…      32       1     100   88101 PM2.5 …
#>  9 1/30/11 37-063-0…     1    12.5 ug/m…      41       1     100   88101 PM2.5 …
#> 10 2/2/11  37-063-0…     1     5.5 ug/m…      18       1     100   88101 PM2.5 …
#> # … with 439 more rows, 10 more variables: csa_code <int>, csa_name <fct>,
#> #   cbsa_code <int>, cbsa_name <fct>, state_code <int>, state <fct>,
#> #   county_code <int>, county <fct>, site_latitude <dbl>, site_longitude <dbl>,
#> #   and abbreviated variable names ¹​aqs_site_id,
#> #   ²​daily_mean_pm2_5_concentration, ³​daily_aqi_value, ⁴​daily_obs_count,
#> #   ⁵​percent_complete, ⁶​aqs_parameter_code, ⁷​aqs_parameter_desc
…
