Professor evaluations and beauty — prof_evals • openintro
…
    Source

    Hamermesh DS, Parker A. 2005. "Beauty in the classroom: Instructors
pulchritude and putative pedagogical productivity". Economics of Education
Review 24.4:369-376.

    See also

    See also evals for simplified version of dataset.

    Examples

prof_evals

#> # A tibble: 463 x 64
#>    tenured profnumber minority   age beautyf2upper beautyflowerdiv
#>      <int>      <int>    <int> <int>         <int>           <int>
#>  1       0          1        1    36             6               5
#>  2       1          2        0    59             2               4
#>  3       1          3        0    51             5               5
#>  4       1          4        0    40             4               2
#>  5       0          5        0    31             9               7
#>  6       1          6        0    62             5               6
#>  7       0          7        0    33             5               4
#>  8       1          8        0    51             6               4
#>  9       0          9        0    33             5               3
#> 10       0         10        0    47             6               5
#> # … with 453 more rows, and 58 more variables: beautyfupperdiv <int>,
#> #   beautym2upper <int>, beautymlowerdiv <int>, beautymupperdiv <int>,
#> #   btystdave <dbl>, btystdf2u <dbl>, btystdfl <dbl>, btystdfu <dbl>,
#> #   btystdm2u <dbl>, btystdml <dbl>, btystdmu <dbl>, class1 <int>,
#> #   class2 <int>, class3 <int>, class4 <int>, class5 <int>, class6 <int>,
#> #   class7 <int>, class8 <int>, class9 <int>, class10 <int>, class11 <int>,
#> #   class12 <int>, class13 <int>, class14 <int>, class15 <int>, class16 <int>,
#> #   class17 <int>, class18 <int>, class19 <int>, class20 <int>, class21 <int>,
#> #   class22 <int>, class23 <int>, class24 <int>, class25 <int>, class26 <int>,
…
