…
## Format

A data frame with 30 observations on the following variable.

- sat_improve:

  a numeric vector

## Examples

``` r

sat_improve
#> # A tibble: 30 × 1
#>    sat_improve
#>          <int>
#>  1          57
#>  2         133
#>  3         231
#>  4          41
#>  5         114
#>  6         129
#>  7         170
#>  8         103
#>  9         259
#> 10         110
#> # ℹ 20 more rows
```
