S&P 500 stock data — sp500_seq • openintro
…
    A data frame with 2948 observations on the following variable.

  racea factor with levels 1, 2, 3, 4,
  5, 6, and 7+

    Source

    http://www.google.com/finance

    Examples

sp500_seq

#> # A tibble: 2,948 x 1
#>    race 
#>    <fct>
#>  1 1    
#>  2 1    
#>  3 1    
#>  4 1    
#>  5 1    
#>  6 1    
#>  7 1    
#>  8 1    
#>  9 1    
#> 10 1    
#> # … with 2,938 more rows
…
