…
- answer:

  a factor with levels `approve` and `not`

## Source

<https://www.nytimes.com/2012/06/08/us/politics/44-percent-of-americans-approve-of-supreme-court-in-new-poll.html>

## Examples

``` r

supreme_court
#> # A tibble: 976 × 1
#>    answer 
#>    <fct>  
#>  1 approve
#>  2 approve
#>  3 approve
#>  4 approve
#>  5 approve
#>  6 approve
#>  7 approve
#>  8 approve
#>  9 approve
#> 10 approve
#> # ℹ 966 more rows
```
