…
## Format

A data frame with 62 observations on the following variable.

- outcome:

  a factor with levels `complications` `okay`

## Examples

``` r

transplant
#> # A tibble: 62 × 1
#>    outcome      
#>    <fct>        
#>  1 complications
#>  2 complications
#>  3 complications
#>  4 okay         
#>  5 okay         
#>  6 okay         
#>  7 okay         
#>  8 okay         
#>  9 okay         
#> 10 okay         
#> # ℹ 52 more rows
```
