Contagiousness of yawning — yawn • openintro
…
result
a factor with levels not yawn yawn

group
a factor with levels ctrl trmt

Source

    MythBusters, Season 3, Episode 28.

Examples

yawn

#> # A tibble: 50 x 2
#>    result group
#>    <fct>  <fct>
#>  1 yawn   trmt 
#>  2 yawn   trmt 
#>  3 yawn   trmt 
#>  4 yawn   trmt 
#>  5 yawn   trmt 
#>  6 yawn   trmt 
#>  7 yawn   trmt 
#>  8 yawn   trmt 
#>  9 yawn   trmt 
#> 10 yawn   trmt 
#> # … with 40 more rows
…
