County data set with smoking ban. — county_w_sm_ban • openintro
…
  densitya numeric vector

  smoking_bana factor with levels comprehensive none partial

    Source

    These data were collected from
http://quickfacts.census.gov/qfd/states/ (no longer available) and its
accompanying pages. Smoking ban data were from a variety of sources.

    Examples

county_w_sm_ban
#> # A tibble: 14,444 x 54
#>    name  state  fips pop2010 pop2000 age_under_5 age_under_18 age_over_65 female
#>    <fct> <fct> <int>   <int>   <int>       <dbl>        <dbl>       <dbl>  <dbl>
#>  1 Abbe… Sout… 45001   25417   26167         6           22.8        16.5   51.5
#>  2 Acad… Loui… 22001   61773   58861         7.6         27.3        12.8   51.2
#>  3 Acco… Virg… 51001   33164   38305         5.9         20.9        19.1   51.3
#>  4 Ada … Idaho 16001  392365  300904         7.2         26.4        10.5   49.9
#>  5 Adai… Miss… 29001   25607   24977         5.6         19.4        12.5   52.3
#>  6 Adai… Miss… 29001   25607   24977         5.6         19.4        12.5   52.3
#>  7 Adai… Miss… 29001   25607   24977         5.6         19.4        12.5   52.3
#>  8 Adai… Miss… 29001   25607   24977         5.6         19.4        12.5   52.3
#>  9 Adai… Iowa  19001    7682    8243         5.8         22.5        21.4   50.4
#> 10 Adai… Iowa  19001    7682    8243         5.8         22.5        21.4   50.4
#> # … with 14,434 more rows, and 45 more variables: white <dbl>, black <dbl>,
#> #   native <dbl>, asian <dbl>, pac_isl <dbl>, two_plus_races <dbl>,
#> #   hispanic <dbl>, white_not_hispanic <dbl>, no_move_in_one_plus_year <dbl>,
#> #   foreign_born <dbl>, foreign_spoken_at_home <dbl>, hs_grad <dbl>,
#> #   bachelors <dbl>, veterans <int>, mean_work_travel <dbl>,
#> #   housing_units <int>, home_ownership <dbl>, housing_multi_unit <dbl>,
#> #   median_val_owner_occupied <dbl>, households <int>,
#> #   persons_per_household <dbl>, per_capita_income <int>,
#> #   median_household_income <int>, poverty <dbl>,
…
