Professor evaluations and beauty — evals • openintro
…
  pic_outfitOutfit of professor in picture: not formal, formal.

  pic_colorColor of professor's picture: color, black & white.

    Source

    Cetinkaya-Rundel M, Morgan KL, Stangl D. 2013. Looking Good on
Course Evaluations. CHANCE 26(2).
http://chance.amstat.org/2013/04/looking-good

    Examples

evals
#> # A tibble: 463 x 21
#>    score rank  ethnicity gender language   age cls_perc_eval cls_did_eval
#>    <dbl> <fct> <fct>     <fct>  <fct>    <int>         <dbl>        <int>
#>  1   4.7 tenu… minority  female english     36          55.8           24
#>  2   4.1 tenu… minority  female english     36          68.8           86
#>  3   3.9 tenu… minority  female english     36          60.8           76
#>  4   4.8 tenu… minority  female english     36          62.6           77
#>  5   4.6 tenu… not mino… male   english     59          85             17
#>  6   4.3 tenu… not mino… male   english     59          87.5           35
#>  7   2.8 tenu… not mino… male   english     59          88.6           39
#>  8   4.1 tenu… not mino… male   english     51         100             55
#>  9   3.4 tenu… not mino… male   english     51          56.9          111
#> 10   4.5 tenu… not mino… female english     40          87.0           40
#> # … with 453 more rows, and 13 more variables: cls_students <int>,
#> #   cls_level <fct>, cls_profs <fct>, cls_credits <fct>, bty_f1lower <int>,
#> #   bty_f1upper <int>, bty_f2upper <int>, bty_m1lower <int>, bty_m1upper <int>,
#> #   bty_m2upper <int>, bty_avg <dbl>, pic_outfit <fct>, pic_color <fct>
…
