2010 General Social Survey — gss2010 • openintro
…
    Source

    US 2010 General Social Survey.

US 2010 General Social Survey.

    Examples

gss2010
#> # A tibble: 2,044 x 5
#>    hrsrelax mntlhlth  hrs1 degree         grass    
#>       <int>    <int> <int> <fct>          <fct>    
#>  1        2        3    55 BACHELOR       NA       
#>  2        4        6    45 BACHELOR       LEGAL    
#>  3       NA       NA    NA LT HIGH SCHOOL NA       
#>  4       NA       NA    NA LT HIGH SCHOOL NOT LEGAL
#>  5       NA       NA    NA LT HIGH SCHOOL NOT LEGAL
#>  6       NA       NA    NA LT HIGH SCHOOL LEGAL    
#>  7        3        0    45 JUNIOR COLLEGE NA       
#>  8       NA       NA    NA JUNIOR COLLEGE NA       
#>  9        0        0    40 HIGH SCHOOL    NOT LEGAL
#> 10        5       10    48 HIGH SCHOOL    NA       
#> # … with 2,034 more rows

gss2010
#> # A tibble: 2,044 x 5
#>    hrsrelax mntlhlth  hrs1 degree         grass    
#>       <int>    <int> <int> <fct>          <fct>    
#>  1        2        3    55 BACHELOR       NA       
#>  2        4        6    45 BACHELOR       LEGAL    
#>  3       NA       NA    NA LT HIGH SCHOOL NA       
#>  4       NA       NA    NA LT HIGH SCHOOL NOT LEGAL
#>  5       NA       NA    NA LT HIGH SCHOOL NOT LEGAL
#>  6       NA       NA    NA LT HIGH SCHOOL LEGAL    
#>  7        3        0    45 JUNIOR COLLEGE NA       
#>  8       NA       NA    NA JUNIOR COLLEGE NA       
#>  9        0        0    40 HIGH SCHOOL    NOT LEGAL
#> 10        5       10    48 HIGH SCHOOL    NA       
#> # … with 2,034 more rows
…
