London Borough Boundaries — london_boroughs • openintro
…
    london_murders

    Examples

library(dplyr)
library(ggplot2)

# Calculate number of murders by borough
london_murders_counts <- london_murders %>%
  group_by(borough) %>%
  add_tally()

london_murders_counts
#> # A tibble: 838 x 6
#> # Groups:   borough [32]
#>    forename             age date        year borough        n
#>    <fct>              <int> <date>     <int> <fct>      <int>
#>  1 Barrington Derrick    19 2006-01-02  2006 Hackney       42
#>  2 Aaron                 24 2006-01-02  2006 Lewisham      36
#>  3 Christopher           22 2006-01-03  2006 Hillingdon    21
#>  4 Thomas Philip         18 2006-01-04  2006 Camden        24
#>  5 Amanda                26 2006-01-04  2006 Camden        24
#>  6 Siva-Kumar            44 2006-01-05  2006 Brent         32
#>  7 Doreen                39 2006-01-08  2006 Croydon       38
#>  8 Matthew Roy           21 2006-01-09  2006 Lambeth       79
#>  9 Joan                  78 2006-01-09  2006 Enfield       31
#> 10 Monsur                27 2006-01-11  2006 Hackney       42
#> # … with 828 more rows
…
