Oscar winners, 1929 to 2012 — oscars • openintro
…
oscars %>%
  count(birth_pl, sort = TRUE)
#> # A tibble: 49 x 2
#>    birth_pl         n
#>    <fct>        <int>
#>  1 England         25
#>  2 New York        23
#>  3 California      22
#>  4 Connecticut      5
#>  5 Pennsylvania     5
#>  6 Illinois         4
#>  7 Missouri         4
#>  8 New Jersey       4
#>  9 Ohio             4
#> 10 Wisconsin        4
#> # … with 39 more rows
…
