Cherry Blossom 10 mile run data, 2009 — run10 • openintro
…
# Examine sample
run10samp
#> # A tibble: 100 x 4
#>     time   age gender state
#>  * <dbl> <dbl> <fct>  <fct>
#>  1  88.3    59 M      MD   
#>  2 101.     32 M      VA   
#>  3 110.     33 F      VA   
#>  4  87.1    52 M      PA   
#>  5  73.0    40 M      DC   
#>  6  70.1    42 F      MD   
#>  7  71.1    28 M      DC   
#>  8 129.     32 F      DC   
#>  9  95.2    29 F      VA   
#> 10  97.3    30 M      VA   
#> # … with 90 more rows
…
