President's party performance and unemployment rate — unemploy_pres • openintro
…
  partyPresident's party.

  unempUnemployment rate.

  changeChange in House seats for the president's party.

    Source

    Wikipedia.

    Examples

unemploy_pres
#> # A tibble: 29 x 5
#>     year potus                     party      unemp change
#>    <int> <fct>                     <fct>      <dbl>  <dbl>
#>  1  1899 William McKinley          Republican 11.6   -9.22
#>  2  1903 Theodore Roosevelt        Republican  4.3   -4.28
#>  3  1907 Theodore Roosevelt        Republican  3.29 -12.3 
#>  4  1911 William Howard Taft       Republican  5.86 -26.6 
#>  5  1915 Woodrow Wilson            Democratic  6.63 -21.0 
#>  6  1919 Woodrow Wilson            Democratic  3.38 -10.3 
#>  7  1923 Calvin Coolidge           Republican  6.93 -25.5 
#>  8  1927 Calvin Coolidge           Republican  4.02  -3.64
#>  9  1931 Herbert Clark Hoover      Republican  8.94 -19.3 
#> 10  1935 Franklin Delano Roosevelt Democratic 21.3    2.88
#> # … with 19 more rows
…
