Summary of many state-level variables — urban_owner • openintro
…
  area_rurala numeric vector

  areapct_rurala numeric vector

  popden_rurala numeric vector

    Source

    US Census.

    Examples

urban_owner
#> # A tibble: 52 x 28
#>    state total_housing_u… total_housing_u… pct_vacant occupied pct_owner_occup…
#>    <fct> <fct>            <fct>                 <dbl> <fct>               <dbl>
#>  1 Alab… 1,963,711        2,171,853              13.3 1,883,7…             69.7
#>  2 Alas… 260,978          306,967                15.9 258,058              63.1
#>  3 Ariz… 2,189,189        2,844,526              16.3 2,380,9…             66  
#>  4 Arka… 1,173,043        1,316,299              12.9 1,147,0…             67  
#>  5 Cali… 12,214,549       13,680,081              8.1 12,577,…             55.9
#>  6 Colo… 1,808,037        2,212,898              10.8 1,972,8…             65.5
#>  7 Conn… 1,385,975        1,487,891               7.9 1,371,0…             67.5
#>  8 Dela… 343,072          405,885                15.7 342,297              72.1
#>  9 Dist… 274,845          296,719                10.1 266,707              42  
#> 10 Flor… 7,302,947        8,989,580              17.5 7,420,8…             67.4
#> # … with 42 more rows, and 22 more variables: pop_st <int>, area_st <dbl>,
#> #   pop_urban <int>, poppct_urban <dbl>, area_urban <dbl>, areapct_urban <dbl>,
#> #   popden_urban <dbl>, pop_ua <int>, poppct_urban_1 <dbl>, area_ua <dbl>,
#> #   areapct_ua <dbl>, popden_ua <dbl>, pop_uc <int>, poppct_uc <dbl>,
#> #   area_uc <dbl>, areapct_uc <dbl>, popden_uc <dbl>, pop_rural <int>,
#> #   poppct_rural <dbl>, area_rural <dbl>, areapct_rural <dbl>,
#> #   popden_rural <dbl>
…
