US Airports — usairports • openintro
…
    Source

    Downloaded from https://www.faa.gov/airports/airport_safety/airportdata_5010/menu
on 2018-08-13.

    Examples

usairports
#> # A tibble: 19,615 x 14
#>    effective_date state region ado   city  county facility_name ownership use  
#>    <date>         <chr> <chr>  <chr> <chr> <chr>  <chr>         <chr>     <chr>
#>  1 2018-07-19     AK    AAL    NONE  ADAK… ALEUT… ADAK          PU        PU   
#>  2 2018-07-19     AK    AAL    NONE  AKHI… KODIA… AKHIOK        PU        PU   
#>  3 2018-07-19     AK    AAL    NONE  AKIA… BETHEL AKIACHAK      PU        PU   
#>  4 2018-07-19     AK    AAL    NONE  AKIA… BETHEL AKIACHAK      PU        PU   
#>  5 2018-07-19     AK    AAL    NONE  AKIAK BETHEL AKIAK         PU        PU   
#>  6 2018-07-19     AK    AAL    NONE  AKUT… ALEUT… AKUTAN        PU        PU   
#>  7 2018-07-19     AK    AAL    NONE  AKUT… ALEUT… AKUTAN        PU        PU   
#>  8 2018-07-19     AK    AAL    NONE  ALAK… KUSIL… ALAKANUK      PU        PU   
#>  9 2018-07-19     AK    AAL    NONE  ALEK… BRIST… ALEKNAGIK     PR        PU   
#> 10 2018-07-19     AK    AAL    NONE  ALEK… DILLI… ALEKNAGIK /N… PU        PU   
#> # … with 19,605 more rows, and 5 more variables: location_id <chr>,
#> #   site_number <chr>, arp_latitude <chr>, arp_longitude <chr>,
#> #   cert_type_date <chr>
…
